<svg
	width="24"
	height="24"
	viewBox="0 0 24 24"
	fill="none"
	xmlns="http://www.w3.org/2000/svg"
>
	<path
		fill-rule="evenodd"
		clip-rule="evenodd"
		d="M12.7033 0.410903C12.3136 0.0254672 11.6864 0.0254672 11.2967 0.410903L0.29673 11.2925C-0.0959016 11.6809 -0.0993282 12.314 0.289077 12.7067C0.568366 12.989 0.974207 13.0701 1.32617 12.949V23C1.32617 23.5523 1.77389 24 2.32617 24H9.18728C9.73957 24 10.1873 23.5523 10.1873 23V15.5H13.4651V23C13.4651 23.5523 13.9128 24 14.4651 24H21.3262C21.8785 24 22.3262 23.5523 22.3262 23V12.7423C22.7204 13.1023 23.3321 13.0896 23.7109 12.7067C24.0993 12.314 24.0959 11.6809 23.7033 11.2925L12.7033 0.410903ZM20.3488 10.7874L12 2.52845L3.32617 11.1089V22H8.18728V14.5C8.18728 13.9477 8.635 13.5 9.18728 13.5H14.4651C15.0173 13.5 15.4651 13.9477 15.4651 14.5V22H20.3262V11C20.3262 10.927 20.334 10.8559 20.3488 10.7874Z"
		fill="#0B1F35"
	/>
</svg>
